{
    "warning": "Using a password on the command line interface can be insecure."
}
{
    "hasData": true,
    "rows": [
        {
            "umeta_id": 1,
            "user_id": 1,
            "meta_key": "nickname",
            "meta_value": "Rob Styles"
        },
        {
            "umeta_id": 2,
            "user_id": 1,
            "meta_key": "rich_editing",
            "meta_value": "true"
        },
        {
            "umeta_id": 3,
            "user_id": 1,
            "meta_key": "admin_color",
            "meta_value": "fresh"
        },
        {
            "umeta_id": 4,
            "user_id": 1,
            "meta_key": "wp_capabilities",
            "meta_value": "a:1:{s:13:\"administrator\";b:1;}"
        },
        {
            "umeta_id": 5,
            "user_id": 1,
            "meta_key": "wp_user_level",
            "meta_value": "10"
        },
        {
            "umeta_id": 6,
            "user_id": 1,
            "meta_key": "first_name",
            "meta_value": "Rob"
        },
        {
            "umeta_id": 7,
            "user_id": 1,
            "meta_key": "last_name",
            "meta_value": "Styles"
        },
        {
            "umeta_id": 8,
            "user_id": 1,
            "meta_key": "wp_autosave_draft_ids",
            "meta_value": "a:43:{i:-1219090062;i:249;i:-1219253597;i:262;i:-1221846596;i:287;i:-1222022176;i:291;i:-1222022361;i:293;i:-1222851388;i:300;i:-1223051767;i:307;i:-1223052110;i:308;i:-1223230783;i:311;i:-1224662338;i:318;i:-1224750688;i:320;i:-1225790491;i:325;i:-1225960789;i:327;i:-1226665374;i:338;i:-1227029186;i:346;i:-1227443120;i:350;i:-1228135981;i:357;i:-1228927353;i:363;i:-1229682715;i:371;i:-1230972912;i:377;i:-1230972938;i:378;i:-1230972964;i:379;i:-1232097630;i:392;i:-1234979664;i:447;i:-1236270871;i:455;i:-1240992340;i:476;i:-1244039252;i:493;i:-1246443906;i:504;i:-1247069395;i:510;i:-1247668390;i:515;i:-1248084199;i:519;i:-1248266508;i:524;i:-1248700913;i:526;i:-1249758923;i:541;i:-1250178160;i:549;i:-1257327295;i:573;i:-1257503347;i:576;i:-1257943890;i:578;i:-1258705217;i:592;i:-1258812943;i:594;i:-1259318225;i:607;i:-1264436510;i:614;i:-1264756225;i:617;}"
        },
        {
            "umeta_id": 9,
            "user_id": 1,
            "meta_key": "ug_per_page",
            "meta_value": "a:1:{s:8:\"RE_Pager\";a:1:{s:3:\"log\";i:250;}}"
        },
        {
            "umeta_id": 10,
            "user_id": 1,
            "meta_key": "closedpostboxes_page",
            "meta_value": "a:6:{i:0;s:13:\"pagecustomdiv\";i:1;s:20:\"pagecommentstatusdiv\";i:2;s:15:\"pagepassworddiv\";i:3;s:11:\"pageslugdiv\";i:4;s:13:\"pageparentdiv\";i:5;s:12:\"pageorderdiv\";}"
        },
        {
            "umeta_id": 11,
            "user_id": 1,
            "meta_key": "closedpostboxes_post",
            "meta_value": "a:4:{i:0;s:11:\"postexcerpt\";i:1;s:10:\"postcustom\";i:2;s:11:\"passworddiv\";i:3;s:7:\"slugdiv\";}"
        },
        {
            "umeta_id": 12,
            "user_id": 1,
            "meta_key": "closedpostboxes_dashboard",
            "meta_value": "a:0:{}"
        },
        {
            "umeta_id": 13,
            "user_id": 1,
            "meta_key": "metaboxhidden_dashboard",
            "meta_value": "a:0:{}"
        },
        {
            "umeta_id": 14,
            "user_id": 1,
            "meta_key": "wp_usersettings",
            "meta_value": "mfold=o&m0=o&m1=o&m2=c&m3=c&m4=c&m5=o&m6=o&m7=c&m8=c&m9=c&editor=tinymce&urlbutton=urlfile"
        },
        {
            "umeta_id": 15,
            "user_id": 1,
            "meta_key": "wp_usersettingstime",
            "meta_value": "1258705293"
        },
        {
            "umeta_id": 17,
            "user_id": 1,
            "meta_key": "wp_dashboard_quick_press_last_post_id",
            "meta_value": "654"
        },
        {
            "umeta_id": 18,
            "user_id": 1,
            "meta_key": "wp_user-settings",
            "meta_value": "mfold=o&m0=o&m1=o&m2=c&m3=c&m4=c&m5=o&m6=o&m7=c&m8=c&m9=c&editor=tinymce&urlbutton=urlfile"
        },
        {
            "umeta_id": 19,
            "user_id": 1,
            "meta_key": "wp_user-settings-time",
            "meta_value": "1302515005"
        }
    ],
    "executionTime": "0.0006 sec",
    "affectedRowCount": 0,
    "affectedItemsCount": 0,
    "warningCount": 0,
    "warningsCount": 0,
    "warnings": [],
    "info": "",
    "autoIncrementValue": 0
}
