<?xml version="1.0" encoding="UTF-8"?>
<svg width="512px" height="512px" viewBox="0 0 512 512" version="1.1" xmlns="http://www.w3.org/2000/svg" xmlns:xlink="http://www.w3.org/1999/xlink">
    <!-- Generator: Sketch 52.6 (67491) - http://www.bohemiancoding.com/sketch -->
    <title>blog</title>
    <desc>Created with Sketch.</desc>
    <g id="Page-1" stroke="none" stroke-width="1" fill="none" fill-rule="evenodd">
        <path d="M467,0 C491.813,0 512,20.187 512,45 L512,120 L0,120 L0,45 C0,20.187 20.187,0 45,0 L467,0 Z M0,467 L0,150 L512,150 L512,467 C512,491.813 491.813,512 467,512 L45,512 C20.187,512 0,491.813 0,467 Z M54,75 C62.2842712,75 69,68.2842712 69,60 C69,51.7157288 62.2842712,45 54,45 C45.7157288,45 39,51.7157288 39,60 C39,68.2842712 45.7157288,75 54,75 Z M104,75 C112.284271,75 119,68.2842712 119,60 C119,51.7157288 112.284271,45 104,45 C95.7157288,45 89,51.7157288 89,60 C89,68.2842712 95.7157288,75 104,75 Z M154,75 C162.284271,75 169,68.2842712 169,60 C169,51.7157288 162.284271,45 154,45 C145.715729,45 139,51.7157288 139,60 C139,68.2842712 145.715729,75 154,75 Z M108.706897,238.568528 C93.0171629,238.568528 81.1753273,244.747823 73.1810345,257.106599 L71.8362069,257.106599 C72.7327631,245.79013 73.1810345,237.563477 73.1810345,232.426396 L73.1810345,192 L39,192 L39,365.766497 L65.112069,365.766497 L70.8275862,352.030457 L73.1810345,352.030457 C81.5488924,362.676872 93.0918804,368 107.810345,368 C122.678235,368 134.426681,362.34185 143.056034,351.025381 C151.685388,339.708911 156,323.739528 156,303.116751 C156,283.089578 151.816134,267.324931 143.448276,255.822335 C135.080418,244.319739 123.500074,238.568528 108.706897,238.568528 Z M97.5607477,266 C104.81312,266 110.532689,269.087544 114.719626,275.262725 C118.906563,281.437905 121,290.700537 121,303.050898 C121,315.401259 118.925254,324.81359 114.775701,331.288174 C110.626147,337.762757 105.037418,341 98.0093458,341 C89.3364052,341 83.00002,338.080868 79,332.242515 C74.99998,326.404162 73,316.74857 73,303.275449 L73,299.570359 C73.1495335,287.594251 75.1682049,279.005266 79.0560748,273.803144 C82.9439447,268.601022 89.1121073,266 97.5607477,266 Z M207,366 L207,192 L173,192 L173,366 L207,366 Z M260,303.275449 C260,290.775387 262.030348,281.437905 266.091106,275.262725 C270.151864,269.087544 276.769296,266 285.943601,266 C295.193105,266 301.848136,269.106256 305.908894,275.318862 C309.969652,281.531468 312,290.850237 312,303.275449 C312,315.775512 309.988451,325.187843 305.965293,331.512725 C301.942135,337.837606 295.343502,341 286.169197,341 C276.919693,341 270.245863,337.818894 266.147505,331.456587 C262.049148,325.09428 260,315.700661 260,303.275449 Z M346,302.831752 C346,289.670915 343.544305,278.192744 338.632841,268.396894 C333.721378,258.601044 326.68916,251.08602 317.535978,245.851596 C308.382796,240.617173 297.815866,238 285.834871,238 C266.561097,238 251.603682,243.683003 240.962177,255.04918 C230.320673,266.415357 225,282.342722 225,302.831752 C225,315.992588 227.455695,327.508147 232.367159,337.378775 C237.278622,347.249402 244.31084,354.820509 253.464022,360.092321 C262.617204,365.364133 273.184134,368 285.165129,368 C304.290071,368 319.210279,362.24222 329.926199,350.726488 C340.64212,339.210756 346,323.246004 346,302.831752 Z M473,241.343348 L429.397516,241.343348 C428.055894,241.045778 424.98139,240.580833 420.173913,239.948498 C415.366436,239.316163 411.211198,239 407.708075,239 C391.235942,239 378.565262,242.719562 369.695652,250.158798 C360.826043,257.598034 356.391304,268.124395 356.391304,281.738197 C356.391304,290.218927 358.31054,297.58366 362.149068,303.832618 C365.987597,310.081576 371.186303,314.619442 377.745342,317.446352 C372.527924,320.496439 368.540386,323.602273 365.782609,326.763948 C363.024831,329.925624 361.645963,333.886958 361.645963,338.648069 C361.645963,342.442079 362.950298,346.031457 365.559006,349.416309 C368.167715,352.801161 371.223585,355.237475 374.726708,356.725322 C365.633495,358.8827 358.739154,362.490676 354.043478,367.549356 C349.347803,372.608037 347,378.894097 347,386.407725 C347,397.343402 351.602438,405.842602 360.807453,411.905579 C370.012468,417.968557 383.335317,421 400.776398,421 C423.583965,421 441.080684,416.982873 453.267081,408.948498 C465.453477,400.914123 471.546584,389.606654 471.546584,375.025751 C471.546584,363.64372 467.950347,355.014336 460.757764,349.137339 C453.565181,343.260343 443.11187,340.321888 429.397516,340.321888 L408.15528,340.321888 C395.633478,340.321888 389.372671,337.866977 389.372671,332.957082 C389.372671,329.683818 391.124206,326.708168 394.627329,324.030043 L399.658385,324.587983 L405.807453,324.922747 C422.428655,324.922747 435.416102,321.184587 444.770186,313.708155 C454.12427,306.231722 458.801242,295.79835 458.801242,282.407725 C458.801242,275.489236 457.01244,269.240371 453.434783,263.660944 L473,258.639485 L473,241.343348 Z M376,384 C376,379.185161 378.110611,375.314829 382.331897,372.388889 C386.553182,369.462948 391.801693,368 398.077586,368 L415.784483,368 C424.37648,368 430.726991,368.88888 434.836207,370.666667 C438.945423,372.444453 441,375.666643 441,380.333333 C441,386.11114 437.525897,390.66665 430.577586,394 C423.629276,397.33335 414.028797,399 401.775862,399 C393.632143,399 387.30031,397.66668 382.780172,395 C378.260035,392.33332 376,388.66669 376,384 Z M389,281.781955 C389,266.593909 395.203531,259 407.610778,259 C419.870321,259 426,266.593909 426,281.781955 C426,288.624094 424.522969,294.037574 421.568862,298.022556 C418.614756,302.007539 413.962108,304 407.610778,304 C401.333302,304 396.662191,302.007539 393.597305,298.022556 C390.53242,294.037574 389,288.624094 389,281.781955 Z" id="blog" fill="#000000" fill-rule="nonzero"></path>
    </g>
</svg>